<?xml version="1.0" encoding="utf-8"?>
<!-- Generator: Adobe Illustrator 17.0.0, SVG Export Plug-In . SVG Version: 6.00 Build 0)  -->
<!DOCTYPE svg PUBLIC "-//W3C//DTD SVG 1.1//EN" "http://www.w3.org/Graphics/SVG/1.1/DTD/svg11.dtd">
<svg version="1.1" id="Layer_1" xmlns="http://www.w3.org/2000/svg" xmlns:xlink="http://www.w3.org/1999/xlink" x="0px" y="0px"
	 width="60px" height="60px" viewBox="0 0 60 60" enable-background="new 0 0 60 60" xml:space="preserve">
<g>
	<path fill="#F5F5F5" d="M30,5.405c8.01,0,8.959,0.031,12.123,0.175c2.925,0.133,4.513,0.622,5.571,1.033
		c1.4,0.544,2.4,1.194,3.449,2.244c1.05,1.05,1.7,2.049,2.244,3.449c0.411,1.057,0.9,2.646,1.033,5.571
		c0.144,3.163,0.175,4.112,0.175,12.123s-0.031,8.959-0.175,12.123c-0.133,2.925-0.622,4.513-1.033,5.571
		c-0.544,1.4-1.194,2.4-2.244,3.449c-1.05,1.05-2.049,1.7-3.449,2.244c-1.057,0.411-2.646,0.9-5.571,1.033
		C38.96,54.564,38.011,54.595,30,54.595s-8.96-0.031-12.123-0.175c-2.925-0.133-4.513-0.622-5.571-1.033
		c-1.4-0.544-2.4-1.194-3.449-2.244c-1.05-1.05-1.7-2.049-2.244-3.449c-0.411-1.057-0.9-2.646-1.033-5.571
		C5.436,38.959,5.405,38.01,5.405,30s0.031-8.959,0.175-12.123c0.133-2.925,0.622-4.513,1.033-5.571
		c0.544-1.4,1.194-2.4,2.244-3.449c1.05-1.05,2.049-1.7,3.449-2.244c1.057-0.411,2.646-0.9,5.571-1.033
		C21.041,5.436,21.99,5.405,30,5.405 M30,0c-8.148,0-9.169,0.035-12.369,0.18c-3.193,0.146-5.374,0.653-7.282,1.394
		c-1.973,0.767-3.646,1.792-5.314,3.46c-1.668,1.668-2.694,3.341-3.46,5.314c-0.742,1.908-1.249,4.089-1.394,7.282
		C0.035,20.831,0,21.852,0,30c0,8.148,0.035,9.169,0.18,12.369c0.146,3.193,0.653,5.374,1.394,7.282
		c0.767,1.973,1.792,3.646,3.46,5.314c1.668,1.668,3.341,2.694,5.314,3.46c1.908,0.742,4.089,1.249,7.282,1.394
		C20.831,59.966,21.852,60,30,60s9.169-0.034,12.369-0.181c3.193-0.146,5.374-0.653,7.282-1.394c1.973-0.767,3.646-1.792,5.314-3.46
		c1.668-1.668,2.694-3.341,3.46-5.314c0.742-1.908,1.249-4.089,1.394-7.282C59.965,39.169,60,38.148,60,30
		s-0.035-9.169-0.181-12.369c-0.146-3.193-0.653-5.374-1.394-7.282c-0.767-1.973-1.792-3.646-3.46-5.314
		c-1.668-1.668-3.341-2.694-5.314-3.46c-1.908-0.742-4.089-1.249-7.282-1.394C39.169,0.035,38.148,0,30,0L30,0z"/>
	<path fill="#F5F5F5" d="M30,14.595c-8.508,0-15.405,6.897-15.405,15.405S21.492,45.405,30,45.405S45.405,38.508,45.405,30
		S38.508,14.595,30,14.595z M30,40c-5.523,0-10-4.477-10-10c0-5.523,4.477-10,10-10c5.523,0,10,4.477,10,10
		C40,35.523,35.523,40,30,40z"/>
	<circle fill="#F5F5F5" cx="46.014" cy="13.986" r="3.6"/>
</g>
</svg>
